…
## check zscore mean should be = 0, sd should be = 1
cpue_trans %>% 
  dplyr::select(monitoring_area, core_indicator, Taxa, cpue_z) %>%
  group_by(monitoring_area, core_indicator, Taxa) %>%
  summarise(mean_check = mean(cpue_z, na.rm = TRUE),
            sd_check = sd(cpue_z, na.rm = TRUE)) %>%
  ungroup()
```

    ## # A tibble: 90 x 5
    ##    monitoring_area                core_indicator     Taxa    mean_check sd_check
    ##    <chr>                          <chr>              <chr>        <dbl>    <dbl>
    ##  1 Area south of Zealand (SmÂlan… Key species        Flound…   7.22e-16     1   
    ##  2 Arhus Bay                      Key species        Flound…   7.12e-17     1   
    ##  3 Asko                           Key functional gr… Cyprin…   5.05e-17     1   
    ##  4 Asko                           Key functional gr… Pisciv…   2.88e-16     1.00
    ##  5 Asko                           Key species        Perch    -2.32e-16     1.00
    ##  6 Curonian Lagoon                Key functional gr… Cyprin…   0.           1   
    ##  7 Curonian Lagoon                Key functional gr… Pisciv…   1.44e-16     1   
    ##  8 Curonian Lagoon                Key species        Perch     1.20e-16     1   
    ##  9 Daugagriva                     Key functional gr… Cyprin…  -2.76e-16     1   
    ## 10 Daugagriva                     Key functional gr… Pisciv…  -2.50e-16     1   
    ## # … with 80 more rows
…
